\relax 
\providecommand\hyper@newdestlabel[2]{}
\providecommand\HyperFirstAtBeginDocument{\AtBeginDocument}
\HyperFirstAtBeginDocument{\ifx\hyper@anchor\@undefined
\global\let\oldcontentsline\contentsline
\gdef\contentsline#1#2#3#4{\oldcontentsline{#1}{#2}{#3}}
\global\let\oldnewlabel\newlabel
\gdef\newlabel#1#2{\newlabelxx{#1}#2}
\gdef\newlabelxx#1#2#3#4#5#6{\oldnewlabel{#1}{{#2}{#3}}}
\AtEndDocument{\ifx\hyper@anchor\@undefined
\let\contentsline\oldcontentsline
\let\newlabel\oldnewlabel
\fi}
\fi}
\global\let\hyper@last\relax 
\gdef\HyperFirstAtBeginDocument#1{#1}
\providecommand\HyField@AuxAddToFields[1]{}
\providecommand\HyField@AuxAddToCoFields[2]{}
\citation{Yao:1979:CQR:800135.804414}
\@writefile{toc}{\contentsline {section}{What is Communication Complexity about?}{1}{section*.1}}
\@writefile{toc}{\contentsline {section}{What Communication Looks Like in This Model}{1}{section*.2}}
\@writefile{toc}{\contentsline {subsection}{Computation for Computing $\mathcal  {E\tmspace  -\thinmuskip {.1667em}Q}$}{1}{subsection*.3}}
\@writefile{toc}{\contentsline {subsection}{Computation of disjoint set}{2}{subsection*.4}}
\@writefile{toc}{\contentsline {subsection}{Protocol Trees}{2}{subsection*.5}}
\@writefile{toc}{\contentsline {subsection}{Some Examples}{2}{subsection*.6}}
\newlabel{sec:some-examples}{{}{2}{Some Examples}{subsection*.6}{}}
\@writefile{toc}{\contentsline {paragraph}{Joint Mean}{2}{paragraph*.7}}
\@writefile{toc}{\contentsline {paragraph}{Joint Median}{3}{paragraph*.8}}
\@writefile{toc}{\contentsline {section}{Proving Lower Bounds in Communication Cost}{3}{section*.9}}
\bibstyle{plain}
\bibdata{L1}
\bibcite{Yao:1979:CQR:800135.804414}{{1}{}{{}}{{}}}
\providecommand\NAT@force@numbers{}\NAT@force@numbers
\ttl@finishall
