\begin{thebibliography}{1}

\bibitem{Yao:1979:CQR:800135.804414}
Andrew Chi-Chih Yao.
\newblock Some complexity questions related to distributive
  computing(preliminary report).
\newblock In {\em Proceedings of the Eleventh Annual ACM Symposium on Theory of
  Computing}, STOC '79, pages 209--213, New York, NY, USA, 1979. ACM.

\end{thebibliography}
